828150 537870 509
398518 839339 525
981864 891544 507
270831 346103 441
9625 413655 449
898641 857623 445
9443 31579 308
627118 358255 509
837586 859457 525
964263 5114 525
836713 96953 509
376515 274649 441
407996 166768 443
97384 708700 509
813544 311279 509
631937 729726 504
13810 992786 525
934005 3256 525
139505 778425 509
285690 361314 441
652604 973569 525
695680 956205 525
131891 678554 509
207914 524066 470
11848 844806 525
912360 911243 401
137193 154437 375
984951 227737 525
998375 371439 525
728977 885743 525
113931 323547 443
378978 46476 443
548547 334277 470
168195 207724 373
879993 787824 525
251755 428820 449
196994 970236 525
383615 625440 470
898883 94553 525
794416 708884 468
17698 538019 470
74962 227463 386
490984 357233 449
432720 192885 449
319108 606088 470
214294 421905 449
73182 705756 509
222097 360440 443
574998 661612 509
744528 255387 509
178043 489998 449
453950 147667 449
100864 145662 375
387990 252294 441
23708 687239 509
151016 558759 470
216629 868353 525
221238 803522 509
81325 154755 375
756410 114737 509
102541 883627 525
809784 226927 509
213857 337879 443
747690 175746 509
357409 140477 443
454222 604445 470
973235 934100 507
954820 57117 525
383332 507203 449
594469 791955 509
827937 900760 525
262679 597371 470
72607 537643 470
259762 842306 525
190118 423362 449
859566 889237 445
118044 668787 509
983569 119061 525
897089 382758 525
808065 765362 468
274875 967560 525
578127 569667 390
240011 513246 470
244036 39953 443
840245 825627 525
581597 78586 470
588271 493060 470
990805 957832 458
380562 857309 525
934741 564254 525
367629 502484 449
985102 823809 525
469518 472103 338
576227 407814 470
937304 357492 525
970831 145115 525
396427 413930 449
863394 90689 525
485925 145184 449
520613 850418 525
189369 726277 509
229236 150885 386
304633 567922 470
462050 46813 449
980095 932685 507
315629 956040 525
383362 165301 443
457233 227375 449
389743 611774 470
769445 890579 525
392620 320365 441
67085 688712 509
994982 41565 525
854980 188227 525
82162 157983 383
872345 396328 525
876239 444502 525
311933 222644 443
202865 751887 509
280589 555570 470
350157 906679 525
919890 842884 476
692190 38501 509
213189 645222 509
860194 159939 525
114549 841547 525
360608 231641 441
25199 498847 449
726230 725091 310
632153 7361 509
332886 296522 384
975945 880502 507
341487 899675 525
952550 958072 414
81741 586322 470
539082 614045 452
154443 348323 443
84622 500746 449
987028 184101 525
108612 849668 525
934561 713171 525
1301 676944 509
165791 624700 470
404697 845607 525
750022 757727 424
324512 35980 443
672036 367807 509
767416 242811 509
694141 472653 509
288867 368418 441
208978 146002 383
109649 359965 443
7485 8239 252
764834 474731 509
953148 61985 525
579384 785342 509
596259 84524 470
839301 985880 507
341850 638583 509
888879 63736 525
432868 293436 449
147801 283267 443
892407 460893 525
705165 351128 509
232542 829826 509
111401 208988 383
933183 463377 525
163681 646928 509
126114 481522 449
597599 951787 525
197695 524069 470
589864 649264 509
838627 878912 432
721533 733370 411
781428 893413 525
932679 693023 525
978038 98782 525
419846 329610 449
557238 357822 470
681194 660966 442
543357 501634 470
405139 54453 443
600789 975994 525
408086 998331 525
95455 828492 509
988315 970654 427
490151 692881 509
240963 47125 443
531503 774068 509
819747 458515 509
435752 402491 449
685007 151878 509
272624 189864 443
259265 552014 470
237610 182484 443
66098 480263 449
894496 863840 445
114354 995714 525
309741 246980 407
181319 767212 509
963920 952932 414
37244 854365 525
69234 496079 449
458621 719884 509
556659 896150 525
650280 870554 525
17154 138626 354
288908 377340 441
277087 815749 509
494527 151942 449
38304 693646 509
884962 72648 525
113666 737618 509
4602 526427 470
